[
    {
        "id_":"10",
        "field1":"demo1",
        "field2":"demo2"
    },
    {
        "id_":"30",
        "field1":"demo11",
        "field2":"demo22"
    },
    {
        "id_":"40",
        "field1":"demo111",
        "field2":"demo222"
    },
    {
        "id_":"50",
        "field1":"demo1111",
        "field2":"demo2222"
    },
    {
        "id_":"60",
        "field1":"demo11111",
        "field2":"demo22222"
    },
    {
        "id_":"70",
        "field1":"demo111111",
        "field2":"demo222222"
    },
    {
        "id_":"80",
        "field1":"demo1111111",
        "field2":"demo2222222"
    },
    {
        "id_":"90",
        "field1":"demo11111111",
        "field2":"demo22222222"
    }

]